Download climate normals from Environment and Climate Change Canada — normals_dl • rOpenSci: weathercan
…
#> The stations data frame hasn't been updated in over 4 weeks. Consider running `stations_dl()` to update it so you have the most recent stations list available
#> The stations data frame hasn't been updated in over 4 weeks. Consider running `stations_dl()` to update it so you have the most recent stations list available
#> The stations data frame hasn't been updated in over 4 weeks. Consider running `stations_dl()` to update it so you have the most recent stations list available
#> Warning: running command 'timedatectl' had status 1
#> The stations data frame hasn't been updated in over 4 weeks. Consider running `stations_dl()` to update it so you have the most recent stations list available
#> The stations data frame hasn't been updated in over 4 weeks. Consider running `stations_dl()` to update it so you have the most recent stations list available
#> Joining, by = c("prov", "station_name", "climate_id", "normals_years", "meets_wmo")
#> # A tibble: 819 x 137
#>    prov  station_name climate_id normals_years meets_wmo period temp_daily_aver…
#>    <chr> <chr>        <chr>      <chr>         <lgl>     <fct>             <dbl>
#>  1 AB    HORBURG      301C3D4    1981-2010     FALSE     Jan                -7.6
#>  2 AB    HORBURG      301C3D4    1981-2010     FALSE     Jan                -7.6
#>  3 AB    HORBURG      301C3D4    1981-2010     FALSE     Jan                -7.6
#>  4 AB    HORBURG      301C3D4    1981-2010     FALSE     Jan                -7.6
#>  5 AB    HORBURG      301C3D4    1981-2010     FALSE     Jan                -7.6
#>  6 AB    HORBURG      301C3D4    1981-2010     FALSE     Jan                -7.6
#>  7 AB    HORBURG      301C3D4    1981-2010     FALSE     Jan                -7.6
#>  8 AB    HORBURG      301C3D4    1981-2010     FALSE     Jan                -7.6
#>  9 AB    HORBURG      301C3D4    1981-2010     FALSE     Jan                -7.6
#> 10 AB    HORBURG      301C3D4    1981-2010     FALSE     Jan                -7.6
#> # … with 809 more rows, and 130 more variables: temp_daily_average_code <chr>,
#> #   temp_sd <dbl>, temp_sd_code <chr>, temp_daily_max <dbl>,
#> #   temp_daily_max_code <chr>, temp_daily_min <dbl>, temp_daily_min_code <chr>,
#> #   temp_extreme_max <dbl>, temp_extreme_max_code <chr>,
#> #   temp_extreme_max_date <date>, temp_extreme_max_date_code <chr>,
#> #   temp_extreme_min <dbl>, temp_extreme_min_code <chr>,
#> #   temp_extreme_min_date <date>, temp_extreme_min_date_code <chr>, rain <dbl>,
#> #   rain_code <chr>, snow <dbl>, snow_code <chr>, precip <dbl>,
#> #   precip_code <chr>, snow_mean_depth <dbl>, snow_mean_depth_code <chr>,
…
