Search for stations by name or location — stations_search • rOpenSci: weathercan
…
    Details

    To search by coordinates, users must make sure they have the
sp package installed.

The current, most recent, climate normals year range is 1981-2010.

    Examples

stations_search(name = "Kamloops")

#> The stations data frame hasn't been updated in over 4 weeks. Consider running `stations_dl()` to update it so you have the most recent stations list available
#> The stations data frame hasn't been updated in over 4 weeks. Consider running `stations_dl()` to update it so you have the most recent stations list available
#> # A tibble: 40 x 16
#>    prov  station_name station_id climate_id WMO_id TC_id   lat   lon  elev tz   
#>    <chr> <chr>             <dbl> <chr>       <dbl> <chr> <dbl> <dbl> <dbl> <chr>
#>  1 BC    KAMLOOPS           1274 1163779        NA NA     50.7 -120.  379. Etc/…
#>  2 BC    KAMLOOPS           1274 1163779        NA NA     50.7 -120.  379. Etc/…
#>  3 BC    KAMLOOPS A         1275 1163780     71887 YKA    50.7 -120.  345. Etc/…
#>  4 BC    KAMLOOPS A         1275 1163780     71887 YKA    50.7 -120.  345. Etc/…
#>  5 BC    KAMLOOPS A         1275 1163780     71887 YKA    50.7 -120.  345. Etc/…
#>  6 BC    KAMLOOPS A        51423 1163781     71887 YKA    50.7 -120.  345. Etc/…
#>  7 BC    KAMLOOPS A        51423 1163781     71887 YKA    50.7 -120.  345. Etc/…
#>  8 BC    KAMLOOPS AF…       1276 1163790        NA NA     50.7 -120.  701  Etc/…
#>  9 BC    KAMLOOPS AF…       1276 1163790        NA NA     50.7 -120.  701  Etc/…
#> 10 BC    KAMLOOPS AUT      42203 1163842     71741 ZKA    50.7 -120.  345  Etc/…
#> # … with 30 more rows, and 6 more variables: interval <chr>, start <dbl>,
#> #   end <dbl>, normals <lgl>, normals_1981_2010 <lgl>, normals_1971_2000 <lgl>
…
